{
    "uid": "0",
    "name": "Lexx",
    "gangs": [
        {
            "id": "0",
            "name": "Cyborgs",
            "cash": 200,
            "characters": [
                {
                    "id": "0",
                    "name": "Lexx",
                    "imgUrl": "",
                    "stats": {
                        "m": 2,
                        "ws": 2,
                        "bs": 2,
                        "s": 2,
                        "t": 2,
                        "w": 2,
                        "i": 2,
                        "a": 2,
                        "ld": 2,
                        "cl": 2,
                        "wil": 2,
                        "int": 2,
                        "xp": 2
                    }
                }
            ]
        }
    ]
}